Take-Home Exercise 1:Visual Analytics for Data Discovery – ISSS608-VAA
…
Check and Handle Missing Values

We run the below code to check for missing values.

Code

insurance |>
  summarise(across(everything(),
                   ~sum(is.na(.)))) |>
  pivot_longer(everything()) |>
  arrange(desc(value))

# A tibble: 47 × 2
   name                value
   <chr>               <int>
 1 fuel_type            1287
 2 vehicle_value         513
 3 vehicle_age             2
 4 age_driving_licence     2
 5 insured_id              0
 6 year                    0
 7 policy_type             0
 8 policy_status           0
 9 business_type           0
10 payment_frequency       0
# ℹ 37 more rows
…
insurance |>
  summarise(across(everything(),
                   ~sum(is.na(.)))) |>
  pivot_longer(everything()) |>
  arrange(desc(value))

# A tibble: 47 × 2
   name                value
   <chr>               <int>
 1 insured_id              0
 2 year                    0
 3 policy_type             0
 4 policy_status           0
 5 business_type           0
 6 payment_frequency       0
 7 bonus_score             0
 8 driver_age              0
 9 vehicle_age             0
10 age_driving_licence     0
# ℹ 37 more rows
…
